x;y;y
-6,997226472;5,978028655;-12,97525513
-1,514728419;6,92781869;-8,44254711
3,867539514;0,18264509;3,684894424
-3,537790605;-4,564746057;1,026955452
29,71769597;10,43987245;19,27782352
10,01401947;8,099687975;1,914331493
-16,80115597;-2,703751537;-14,09740443
24,91202508;9,634718495;15,27730658
4,045667073;-6,358036978;10,40370405
-0,790918843;-7,15789688;6,366978037
-12,10846074;-8,234122858;-3,874337881
-14,71885738;-1,738751201;-12,98010618
-3,951281675;5,796208325;-9,74749
-0,958712528;4,943656591;-5,902369119
9,500327928;3,845005158;5,65532277
-3,901553759;5,325467606;-9,227021364
3,280173063;-5,974904049;9,255077112
5,069147174;-5,795946498;10,86509367
6,823966907;4,180966714;2,643000193
-16,97561433;-2,805659667;-14,16995466
-14,99302493;-1,477424003;-13,51560093
8,527188285;0,694181585;7,8330067
9,682380356;0,844312129;8,838068227
-12,8302636;-8,390550509;-4,439713093
1,84532869;4,625672751;-2,780344061
1,747862451;0,048622729;1,699239723
-1,403563419;5,423705573;-6,827268992
-7,21999743;-4,131465938;-3,088531492
15,91195222;8,611989807;7,299962417
-14,93262005;-3,110898001;-11,82172205
-4,86925574;-4,356673322;-0,512582419
11,18768352;8,160690193;3,026993331
9,13508156;3,906710473;5,228371087
4,229542925;-6,716222562;10,94576549
-4,051427816;-7,672387142;3,620959326
4,495067349;4,307477065;0,187590284
18,69588421;8,892886741;9,802997464
-5,411784164;5,821494802;-11,23327897
-18,33764696;-8,792822504;-9,544824452
18,36342776;8,792880256;9,570547504
4,050164801;7,660523782;-3,610358981
20,74955305;9,193299944;11,55625311
6,578276659;7,820212721;-1,241936061
-22,09326312;-9,19018304;-12,90308008
-24,66322351;-9,515269913;-15,14795359
2,47201479;4,647142209;-2,175127419
-16,91872347;-3,063139447;-13,85558403
19,01057667;8,913882996;10,09669368
13,90783197;3,109680164;10,79815181
4,622930429;0,355094813;4,267835616
-17,18945119;-2,623075252;-14,56637594
-13,30728579;-3,450676679;-9,856609111
-2,40506602;-4,749083205;2,344017185
1,867383391;-5,167450782;7,034834173
-6,27652362;6,157379233;-12,43390285
4,690239969;-6,546821701;11,23706167
29,57123137;10,2869886;19,28424277
-2,930531052;-4,766509495;1,835978443
-25,02869983;-9,50272061;-15,52597922
3,557320053;0,321333706;3,235986347
27,56116953;9,985751142;17,57541838
-15,90685903;-2,251708659;-13,65515037
1,161344365;-7,032896272;8,194240636
-0,326823781;-7,278691933;6,951868152
19,16706879;9,071483722;10,09558507
-16,22998662;-2,841465508;-13,38852111
3,291447084;-6,808167868;10,09961495
15,84415721;8,580865546;7,263291665
18,31320391;2,265632019;16,04757189
3,633979362;4,52022779;-0,886248427
19,33653656;8,865325361;10,4712112
11,48913209;1,078059948;10,41107214
-3,3873265;6,056321539;-9,443648039
16,45427302;1,57997446;14,87429856
3,523978353;-6,791899766;10,31587812
-9,259560062;-3,792243438;-5,467316624
15,99536556;2,731511725;13,26385384
13,51099189;3,237461324;10,27353057
-25,89384647;-9,702252629;-16,19159384
16,33919972;3,140042842;13,19915688
-4,509541346;5,49115065;-10,000692
-6,856107721;-0,48912011;-6,366987611
-8,132406521;-3,995277244;-4,137129277
-1,253612568;7,01578936;-8,269401928
-11,28984997;-3,740967636;-7,548882332
11,56287574;8,245339106;3,317536633
5,342118414;-6,560032554;11,90215097
1,718908627;-5,081855154;6,800763781
10,28688274;8,161922212;2,124960523
1,392183419;-7,158081045;8,550264464
-15,82912322;-1,528740091;-14,30038313
2,801528054;7,689182741;-4,887654687
28,80949485;10,22068243;18,58881242
11,62006128;3,436926122;8,183135162
2,582844126;7,332869523;-4,750025397
11,35565336;3,522848747;7,832804611
-30,16316079;-10,3773445;-19,7858163
-8,943629804;-3,725939501;-5,217690303
5,872982314;-5,906074424;11,77905674
14,74009864;3,132054086;11,60804455
-17,80050263;-2,128169764;-15,67233287
-21,47376077;-9,268704417;-12,20505635
-0,026104073;-0,055321168;0,029217095
10,58197034;3,668964076;6,913006262
26,09686159;9,724482355;16,37237924
4,204409261;-5,839026069;10,04343533
16,79773005;3,023029496;13,77470055
-1,465678388;-4,870137025;3,404458637
-5,916317656;6,119983436;-12,03630109
-27,79214236;-10,20712623;-17,58501613
-22,19676607;-9,065977106;-13,13078896
0,793828772;-7,242736734;8,036565506
7,737831473;7,923502492;-0,185671018
6,480991569;-6,122123234;12,6031148
-11,84048896;-1,162877345;-10,67761161
1,093088146;-5,248204785;6,341292931
-24,23437642;-9,306503516;-14,92787291
-16,73606761;-2,337198696;-14,39886891
14,55347285;1,625228109;12,92824474
-6,37418411;6,200820942;-12,57500505
4,939979509;-5,644490853;10,58447036
17,13031733;8,950233254;8,180084078
9,604523169;3,843799432;5,760723737
3,113917218;-6,733816215;9,847733433
-6,038921101;5,989263016;-12,02818412
4,830905207;-6,633666446;11,46457165
3,862811054;4,526958965;-0,664147911
0,878485385;-0,006013205;0,88449859
8,593462869;0,742665296;7,850797572
3,294820456;-6,846664371;10,14148483
-20,12707629;-9,169998998;-10,95707729
29,59064551;10,02951098;19,56113453
1,972531471;7,403468946;-5,430937475
-4,260256891;5,926446933;-10,18670382
-9,292765442;-8,127299107;-1,165466336
5,49835307;-6,012880002;11,51123307
-15,38644967;-1,970391718;-13,41605795
30,58297353;10,31605115;20,26692239
2,955317868;4,398274822;-1,442956954
-3,64754603;5,567782505;-9,215328535
1,129041953;-7,137792058;8,266834011
-3,22485356;-4,360084542;1,135230982
-17,0144571;-1,960683397;-15,0537737
-1,243461945;7,101160562;-8,344622507
20,13402921;9,167473621;10,96655559
9,736508835;0,83356063;8,902948205
4,495432787;-6,077535443;10,57296823
-4,218591124;-7,624922029;3,406330906
18,23622069;8,953881557;9,282339128
-3,39800629;6,885990041;-10,28399633
26,82260668;9,782685693;17,03992098
-7,589307218;-4,14392817;-3,445379048
11,66663401;8,378751;3,287883014
-1,301193506;-7,39367371;6,092480204
12,77353487;3,170074848;9,603460019
4,834242976;-5,810250139;10,64449312
-25,37252729;-9,709339772;-15,66318752
1,290755753;-5,239193724;6,529949477
7,03563909;0,602223462;6,433415627
-5,091477976;-4,428354348;-0,663123628
-6,668234614;-0,70300476;-5,965229854
-12,69843551;-8,372653392;-4,325782113
12,53577653;3,703077751;8,832698782
10,45447114;0,837227653;9,617243486
-14,45304089;-8,536529647;-5,91651124
-2,600202947;6,446580686;-9,046783633
7,748148056;0,719391126;7,028756929
-22,04743574;-9,230742381;-12,81669336
-15,41087147;-1,954668367;-13,4562031
-17,1668844;-2,150163724;-15,01672067
14,17408271;3,027504835;11,14657788
-14,91236476;-1,390970724;-13,52139404
29,35327733;10,17668828;19,17658905
-1,944102464;7,010500579;-8,954603043
8,857910286;7,995738569;0,862171717
-3,030779882;-7,403644354;4,372864473
0,889631771;4,892470045;-4,002838274
1,197261519;-7,262293145;8,459554664
-10,9339863;-3,868351328;-7,065634968
3,457736061;-6,305734236;9,763470296
3,100065063;-6,070007434;9,170072497
0,015585789;-7,159706574;7,175292362
-10,23516298;-3,566842855;-6,668320124
2,399056483;-6,662070776;9,061127259
-8,157543593;-3,980278294;-4,177265299
4,291462168;7,748659349;-3,457197182
-15,32133972;-1,654616446;-13,66672328
-10,95734306;-8,173674152;-2,783668909
23,88835922;9,282785848;14,60557337
-5,901591384;-4,07537986;-1,826211524
16,41468404;8,727252886;7,687431156
-5,364100617;-7,709236184;2,345135567
-11,59341339;-3,478478434;-8,114934955
0,699919051;7,406469718;-6,706550667
5,187448151;4,139556684;1,047891467
3,56765333;-6,016799086;9,584452417
15,38354446;2,595466312;12,78807815
2,711845508;-5,554876578;8,266722086
0,746940586;-4,983695527;5,730636113
26,64735811;9,716863041;16,93049507
-24,10413305;-9,49634573;-14,60778732
9,402157634;0,74920866;8,652948974
2,175782116;-7,037993206;9,213775322
-0,655591623;-0,125098778;-0,530492844
15,03123334;3,004807096;12,02642625
-18,95641213;-2,118593383;-16,83781875
8,929831975;7,99870126;0,931130715
3,455338196;-5,039815286;8,495153482
16,22044765;2,807345061;13,41310259
22,5117712;9,14297038;13,36880082
30,38582445;10,40539057;19,98043388
14,9554769;1,689347607;13,26612929
-2,736792956;-0,2259644;-2,510828556
-22,25936254;-9,146229432;-13,11313311
16,77166187;2,936871616;13,83479026
-3,266133269;-7,285711621;4,019578352
-17,1805698;-1,660506276;-15,52006353
9,465251346;3,755830593;5,709420754
-10,70682946;-3,732869662;-6,973959798
24,85262382;9,837039457;15,01558437
-2,205358277;-7,393260937;5,187902661
29,28387446;10,40942328;18,87445118
21,164411;9,20666389;11,95774711
4,313654526;0,344160542;3,969493984
1,374875044;0,080045233;1,294829811
-1,383467808;7,02935396;-8,412821768
29,87345304;10,22909939;19,64435365
-27,70997578;-9,857357517;-17,85261827
-0,539309734;-7,45048899;6,911179256
-11,17088015;-3,501835644;-7,669044505
-12,38254449;-8,440958891;-3,941585601
-9,579442588;-3,818985982;-5,760456606
-9,599574704;-8,162156405;-1,437418299
14,14309466;1,250374898;12,89271976
15,03175013;8,558110923;6,473639202
-5,148147149;-4,326840591;-0,821306558
-8,619635061;-4,187694542;-4,431940519
-26,03600093;-9,454189241;-16,58181169
-16,28669839;-1,727747065;-14,55895132
-2,678074754;5,494697489;-8,172772242
-11,76651866;-1,09483449;-10,67168417
-1,188630663;6,93377809;-8,122408752
25,83338494;9,555652801;16,27773214
27,41556878;10,03111803;17,38445076
1,372561491;7,301463678;-5,928902187
-29,01239676;-10,31981579;-18,69258097
25,22637596;9,491479462;15,7348965
7,730614067;4,067384112;3,663229956
17,70001581;8,876362967;8,823652847
9,715869613;8,066486797;1,649382816
-13,34815118;-1,37367869;-11,97447249
1,578737924;0,136188492;1,442549432
-6,165842882;-7,842393077;1,676550195
-0,866633793;-0,01863259;-0,848001203
-1,789130443;-7,419511989;5,630381546
-6,512444548;-4,257201268;-2,25524328
-5,351511873;5,583581539;-10,93509341
-22,73442822;-9,539470585;-13,19495763
9,712258858;0,877493905;8,834764952
22,45932985;9,165543915;13,29378594
17,65585379;8,864295179;8,791558607
-4,590668168;6,494918295;-11,08558646
2,498426807;4,628128185;-2,129701378
2,951490221;0,342233411;2,60925681
28,20435582;9,938932743;18,26542308
-13,8480663;-2,974318654;-10,87374765
1,958608578;7,439090442;-5,480481864
-5,234604609;5,756236647;-10,99084126
17,05659249;3,076231477;13,98036101
-29,09943758;-10,38613317;-18,71330442
-2,377461568;6,98213309;-9,359594657
-6,279582406;-0,614461088;-5,665121318
25,59575317;9,753168531;15,84258464
9,547991253;3,85667907;5,691312183
-27,46479357;-10,33707065;-17,12772292
10,63544868;8,137486588;2,49796209
4,806953717;-5,666694748;10,47364847
17,68886643;2,242764652;15,44610178
15,90768408;1,597129572;14,31055451
26,74508764;9,923479217;16,82160842
-17,38942807;-2,064957894;-15,32447017
12,08284068;1,16159708;10,9212436
28,7119327;10,04029344;18,67163926
-2,570286332;5,406315289;-7,976601621
-14,28155973;-3,018839111;-11,26272062
21,47725752;9,258702776;12,21855474
4,292473543;-6,514500464;10,80697401
0,883661131;7,384078702;-6,50041757
-5,518150902;-4,299697006;-1,218453896
0,07001091;-4,80467042;4,874681331
7,041703729;-5,864248612;12,90595234
-15,58958427;-2,874093904;-12,71549036
-17,25731032;-2,066038721;-15,19127159
-5,110257075;6,048254598;-11,15851167
9,767319489;0,878991235;8,888328254
26,40409757;9,920795652;16,48330192
6,391257962;7,917423083;-1,526165121
-1,500808417;5,123673976;-6,624482393
16,44891381;2,731684756;13,71722905
4,625991258;7,790390105;-3,164398847
-9,446689944;-3,931333157;-5,515356787
-8,413039705;-8,07699546;-0,336044246
10,39496164;8,273195342;2,121766298
4,167697186;-5,547161236;9,714858423
-12,36305265;-1,041319737;-11,32173291
16,96154131;2,480101115;14,4814402
-11,25934285;-8,26994897;-2,989393882
3,510445916;-6,705492414;10,21593833
-4,643830766;6,399721102;-11,04355187
-23,65785772;-9,485108296;-14,17274942
16,77832829;2,05380022;14,72452807
2,091432377;-5,066168613;7,15760099
-18,19005835;-2,180109108;-16,00994924
14,29693239;1,431261368;12,86567102
-19,15023294;-8,929353632;-10,22087931
29,97461197;9,905179998;20,06943197
4,2896878;-5,959143709;10,24883151
25,43355152;9,510122523;15,92342899
-7,060291624;-0,614667051;-6,445624573
-3,397619799;-4,57245614;1,174836341
2,294818044;-5,475180787;7,76999883
-1,593196653;5,079247113;-6,672443767
16,43592353;2,205579735;14,2303438
13,58717852;3,424988893;10,16218962
15,68155842;3,149156315;12,53240211
-17,98967244;-8,782367042;-9,207305399
3,7943946;-6,839983424;10,63437802
17,22740949;1,578271084;15,6491384
-14,72419349;-3,137011196;-11,58718229
17,9455412;2,280809953;15,66473125
-3,453062529;5,54191115;-8,994973679
24,99018553;9,704584115;15,28560141
-10,71602045;-8,223321651;-2,492698796
-2,198027425;-4,570966479;2,372939054
-0,661905459;-4,702076382;4,040170924
-6,299526726;-4,299196538;-2,000330188
15,62545534;1,639336138;13,9861192
12,94604493;3,313758434;9,632286498
10,5686272;3,358294687;7,210332516
4,710622495;4,069400515;0,641221979
3,047500931;-5,351055225;8,398556156
-13,04980147;-8,38075616;-4,669045313
-3,250749272;6,677146459;-9,927895731
-3,995535035;6,09342449;-10,08895953
7,383132366;7,968157428;-0,585025062
-13,66994236;-3,279381785;-10,39056057
-5,234249801;-4,255280312;-0,978969489
28,95214053;10,07147894;18,88066159
-5,829529123;-7,7915399;1,962010778
-13,57721698;-8,310674752;-5,266542226
2,403152891;-6,964677107;9,367829998
-12,43249595;-0,935789399;-11,49670655
-15,00019347;-1,480511988;-13,51968148
0,9754538;-5,077568853;6,053022653
25,43243813;9,49714733;15,9352908
1,036687772;7,354322665;-6,317634893
-3,297328059;-4,620340977;1,323012918
15,31107922;1,659610256;13,65146896
-4,219581217;5,545320978;-9,764902195
-10,15679455;-0,840773648;-9,316020898
-1,349937313;6,828434338;-8,178371651
14,95211473;1,884623312;13,06749142
-2,484512234;5,371214137;-7,855726372
-16,28067832;-2,258939851;-14,02173847
27,6728147;9,779104796;17,8937099
15,52852731;2,428213433;13,10031388
2,757932693;-6,864803985;9,622736678
28,77097922;10,09881997;18,67215924
0,674210796;4,833028327;-4,158817531
-4,715231161;6,739722471;-11,45495363
-18,71555002;-9,081089791;-9,634460232
17,88904485;2,374812363;15,51423249
-9,628606737;-8,164669436;-1,463937301
-14,49231412;-3,075046531;-11,41726758
11,11198893;3,535605205;7,576383721
-14,26588754;-1,387965113;-12,87792243
3,387088624;-5,248204017;8,635292642
-16,73621813;-1,876322046;-14,85989609
-3,700834665;6,64333763;-10,3441723
10,76730881;0,966214896;9,801093917
13,14932345;1,254004447;11,89531901
-7,107604723;-8,028102257;0,920497534
-13,9610427;-3,281584554;-10,67945815
-0,605283013;-7,223446401;6,618163388
-6,040911538;5,705427722;-11,74633926
26,06092826;9,640901952;16,42002631
15,05996998;1,377295682;13,6826743
11,70794642;8,389292008;3,318654412
-1,354872899;-4,730813877;3,375940978
3,582129277;-5,433413827;9,015543105
-9,662715379;-3,974579103;-5,688136276
11,534544;3,414907889;8,119636108
-2,671382576;-4,634357492;1,962974915
4,249090546;7,549364475;-3,300273929
-0,427388388;5,12091622;-5,548304608
8,155765363;3,837632174;4,318133188
4,91134179;-6,140693657;11,05203545
2,832935615;-6,731041842;9,563977457
-4,458765063;-0,25634199;-4,202423073
-6,719276272;-7,876605785;1,157329513
-3,029433226;6,914289141;-9,943722367
-14,12086837;-3,296369374;-10,824499
0,111527905;-7,139669382;7,251197287
28,7797515;10,10022856;18,67952294
7,386365961;4,030958389;3,355407572
15,72339004;3,105589166;12,61780087
-4,351638753;-0,451646603;-3,89999215
-28,22695257;-9,65560268;-18,57134989
-10,03303331;-0,858042615;-9,174990695
-10,11936646;-3,89999151;-6,219374951
0,310736691;7,239502656;-6,928765965
-29,56691481;-10,14598178;-19,42093302
21,82463516;9,01948115;12,80515401
-5,393297804;-0,459460916;-4,933836888
3,291399491;-6,854004876;10,14540437
-0,076402315;7,059305652;-7,135707967
-0,071642155;-5,04512558;4,973483425
-29,16184498;-9,899136004;-19,26270897
12,26041108;8,277910016;3,982501066
8,656445261;0,947117475;7,709327785
-17,49643631;-8,753519151;-8,742917159
-8,275235373;-3,866623547;-4,408611826
-23,51934381;-9,34551801;-14,1738258
1,050051764;-0,01060602;1,060657784
15,89952861;1,722791081;14,17673753
5,929040972;4,282385906;1,646655066
-4,930775936;-7,704640281;2,773864346
5,681224183;-5,828039251;11,50926343
-6,115329544;-3,961377602;-2,153951942
-30,71639922;-10,47392511;-20,24247411
6,099763463;0,388921313;5,71084215
17,80332223;2,083151853;15,72017038
4,447627887;4,371237863;0,076390025
2,239324777;-5,292478876;7,531803652
-0,395057527;5,018016525;-5,413074051
-7,517206993;6,13660663;-13,65381362
3,55732754;-6,720828086;10,27815563
-3,84605856;-0,332264577;-3,513793983
-4,937009935;6,110722362;-11,0477323
15,73585432;1,645371717;14,0904826
4,295264638;-5,743471915;10,03873655
-16,62853661;-1,96417185;-14,66436476
3,515127683;-6,304799681;9,819927364
25,95574455;9,51985387;16,43589068
-0,688950748;7,018325841;-7,70727659
-19,13777811;-2,343109295;-16,79466882
-8,598030404;-0,769659681;-7,828370723
4,961552714;7,6820761;-2,720523386
-16,45764333;-2,750763432;-13,70687989
-9,779715925;-3,748868494;-6,030847431
6,007536369;-6,204468877;12,21200525
-18,94425942;-2,514745217;-16,4295142
13,87351516;3,001954401;10,87156076
0,273068666;-5,023471022;5,296539688
-16,9055391;-8,668960599;-8,236578502
27,92739743;10,18794132;17,73945612
-17,93679598;-2,716441803;-15,22035418
11,02709133;1,097798067;9,929293265
-6,372954069;6,272543771;-12,64549784
-3,165143268;-0,320688452;-2,844454816
-5,481301934;-0,404284582;-5,077017352
-0,226655432;-4,860747469;4,634092037
12,68705832;1,298868739;11,38818959
-19,28684212;-9,000416804;-10,28642532
-17,55154076;-2,787431963;-14,76410879
-6,545903863;-7,711904983;1,16600112
26,10560326;9,587151374;16,51845189
17,29937214;1,82849962;15,47087252
-0,879529568;-4,701854335;3,822324767
4,209367918;7,650260228;-3,44089231
14,7934785;8,562247771;6,23123073
8,836478399;0,971345754;7,865132645
2,624578915;0,267462303;2,357116612
23,91303914;9,482682923;14,43035621
-4,970129845;-0,386813638;-4,583316207
4,130002251;4,652576542;-0,522574291
-30,49060601;-10,32655859;-20,16404742
-14,63419999;-3,083749019;-11,55045097
-12,20132912;-3,479758669;-8,721570453
-13,97041449;-8,518482644;-5,451931843
1,300783707;4,907368758;-3,606585051
3,045254336;4,448019544;-1,402765208
-2,71140034;6,383718626;-9,095118966
17,95353891;2,883368719;15,07017019
-1,954867821;6,952213168;-8,907080989
-18,86645411;-2,065101593;-16,80135252
2,490033989;-5,850630108;8,340664097
3,264794448;-6,459031214;9,723825662
16,35467324;1,932782494;14,42189074
-3,181366313;-7,710471793;4,529105481
-17,75422377;-1,984346836;-15,76987694
28,75541067;10,33396721;18,42144346
-4,252345809;6,033576763;-10,28592257
17,18587701;2,080927743;15,10494927
-30,40348707;-10,29702;-20,10646708
3,358859863;-6,423872758;9,782732621
-1,270455949;7,00601127;-8,27646722
-13,67935957;-1,310850514;-12,36850905
-4,056258923;-0,393332549;-3,662926373
4,586400126;-6,990538375;11,5769385
-0,291996728;4,923700952;-5,215697681
16,52925363;2,451788965;14,07746467
2,356405046;-5,457722261;7,814127307
12,04376682;8,309519756;3,73424706
-26,65383038;-9,758792476;-16,8950379
14,12091036;3,207997634;10,91291272
-6,52011445;-4,217707783;-2,302406667
15,6744214;3,003729222;12,67069218
-0,279466354;-4,802322764;4,522856411
-15,9163983;-8,694171564;-7,222226734
-4,179449605;5,855817212;-10,03526682
-27,14680342;-10,17141686;-16,97538656
-16,01911205;-2,758432924;-13,26067913
-4,360648933;-4,367423755;0,006774822
-4,181298982;6,430198615;-10,6114976
-13,15208155;-8,304863962;-4,84721759
6,383670551;0,731377542;5,652293009
-3,951963194;-4,571134872;0,619171679
13,58493654;1,315183407;12,26975314
4,933260281;0,362381171;4,57087911
3,448984886;-7,055074076;10,50405896
-11,43439419;-3,492943088;-7,941451104
17,55708029;2,292202025;15,26487826
19,15208977;2,017695426;17,13439435
-17,09119797;-1,700044317;-15,39115365
-0,841187216;-7,227584302;6,386397086
-11,84599848;-1,059135661;-10,78686282
-2,670867879;5,667866906;-8,338734785
18,81086657;2,233025911;16,57784066
-11,44165807;-3,476090136;-7,965567936
4,714986819;7,741801419;-3,0268146
-5,102262251;5,434706687;-10,53696894
6,159272093;0,591563549;5,567708544
-16,52662362;-1,599511605;-14,92711202
2,060245142;-5,141479624;7,201724766
-19,45188432;-8,945947194;-10,50593713
-15,68957867;-3,165105485;-12,52447319
-2,986054202;-0,438891783;-2,547162418
-19,28506555;-8,925253252;-10,3598123
-15,09227123;-2,170003201;-12,92226803
-1,337768094;-4,807222233;3,469454139
2,215115834;-5,639402966;7,8545188
-16,1435337;-1,673420651;-14,47011305
26,02959504;9,727728684;16,30186635
-22,11042101;-9,283468948;-12,82695206
-4,459493012;-0,569128854;-3,890364158
0,179416757;7,379933603;-7,200516846
28,64997341;9,90120506;18,74876835
-25,74046981;-9,605436868;-16,13503294
23,76015777;9,051757476;14,7084003
-6,134296415;-7,779679735;1,64538332
-4,813544391;-4,332279674;-0,481264717
11,75347903;3,429698429;8,323780598
0,000127995;-5,206105312;5,206233307
-16,01102011;-8,614099493;-7,396920619
3,250625257;0,42043175;2,830193507
-18,18362257;-1,86913695;-16,31448562
1,886213357;7,417432636;-5,531219279
4,136050312;-5,73644443;9,872494741
-18,82363475;-9,008782989;-9,814851761
-29,38213513;-10,27191663;-19,1102185
-0,035929784;6,964015483;-6,999945267
5,363575019;-6,055775436;11,41935045
29,25670091;10,4230585;18,8336424
30,04869143;10,11389176;19,93479967
-16,53070947;-8,780552806;-7,750156666
-30,19101886;-10,3639905;-19,82702836
18,08535383;2,616537312;15,46881651
-0,823261593;-7,340815005;6,517553413
10,94772493;3,759089347;7,188635587
-4,335776547;6,684946554;-11,0207231
4,662033668;7,703359961;-3,041326293
-4,44957488;5,930084959;-10,37965984
-12,31927126;-3,103897413;-9,215373843
8,261083301;4,000892829;4,260190472
-0,560804025;7,065571339;-7,626375364
-5,542179502;-0,569005249;-4,973174252
2,18968098;-7,069846051;9,25952703
-17,60790705;-2,245143126;-15,36276392
-5,399073088;6,252443553;-11,65151664
10,84294167;3,454354728;7,388586939
12,74257988;8,449267127;4,293312757
-5,806986607;-7,896699494;2,089712887
-4,980213802;-0,436871356;-4,543342446
0,70258367;-6,636759635;7,339343305
4,92880804;-5,646557851;10,57536589
4,909024335;4,382268095;0,52675624
19,09323556;9,010004106;10,08323145
15,05430858;2,860812979;12,1934956
10,63272509;8,306788273;2,325936812
-13,79290181;-3,236568654;-10,55633316
-2,653677635;5,431234832;-8,084912467
-6,619516432;-0,498651373;-6,120865059
0,729712265;-5,132369954;5,862082219
2,131896846;-5,507878608;7,639775454
14,99005535;8,460384063;6,52967129
-15,36480021;-3,041374828;-12,32342538
24,95574836;9,376387251;15,57936111
-13,6063566;-1,195016211;-12,41134039
-2,064150451;5,780272749;-7,8444232
-3,953261156;5,628125675;-9,581386831
2,636782131;4,744371643;-2,107589511
-8,714309546;-3,841927694;-4,872381852
9,757111093;3,828174595;5,928936498
29,88155948;10,26862478;19,6129347
-15,5839729;-2,789736929;-12,79423597
-15,44435638;-8,493870507;-6,950485875
1,998677064;7,448525315;-5,449848252
15,85423776;8,490046489;7,364191273
-28,44177334;-9,964159116;-18,47761422
13,87228324;3,462648781;10,40963446
17,26345873;1,983776344;15,27968238
-4,089188251;5,668843997;-9,758032248
17,50708875;1,976593188;15,53049556
14,89950554;2,96733516;11,93217038
-0,910003008;-4,74087321;3,830870202
27,68792466;10,11246601;17,57545865
5,350223175;4,557748955;0,79247422
16,43127257;8,892998377;7,53827419
-12,78455483;-8,30792469;-4,476630145
20,38771664;9,127063718;11,26065292
16,1163928;1,734090741;14,38230206
10,34634976;3,860426115;6,485923648
-10,17189162;-3,685343986;-6,486547636
-9,024944583;-8,019575134;-1,005369449
20,46011409;9,185923899;11,27419019
17,41856196;1,641788772;15,77677319
-2,336525078;-4,753942436;2,417417358
21,39097082;9,135880527;12,25509029
27,53826907;10,32396353;17,21430554
-2,048783387;7,091272682;-9,140056069
-12,48615326;-1,085452941;-11,40070032
-27,85820676;-10,02747735;-17,83072941
-9,905360121;-0,876008985;-9,029351136
1,804427506;4,866063782;-3,061636277
11,63838277;3,738279826;7,900102944
16,80972835;1,73144049;15,07828786
8,516085549;4,006015616;4,510069933
28,47587556;9,951565122;18,52431044
-1,75999615;-7,290226084;5,530229934
-2,142984622;5,206550718;-7,34953534
-24,96647906;-9,37574343;-15,59073563
25,11642151;9,707946296;15,40847521
-0,16494352;-4,754155767;4,589212247
-10,66666687;-8,108144423;-2,558522448
1,059769607;7,318825693;-6,259056087
9,533632383;3,976552496;5,557079886
-19,30912285;-8,845015451;-10,4641074
-8,489667635;-3,839035455;-4,65063218
-3,047395905;-7,690280111;4,642884206
-8,325403742;-0,740930672;-7,58447307
-3,488834585;-0,217750661;-3,271083924
-11,45136642;-3,661789521;-7,789576902
3,296266482;-6,570075599;9,866342081
-6,498365748;-7,934301082;1,435935334
-3,401167696;6,436357749;-9,837525445
-10,19303012;-0,768423242;-9,424606881
-14,96147717;-2,963084571;-11,9983926
4,621101949;-5,787787457;10,40888941
3,386736872;0,30123048;3,085506392
3,681598094;-6,492307817;10,17390591
3,964907989;-5,543827118;9,508735107
-0,904215389;7,159330724;-8,063546112
-1,492294063;5,132417079;-6,624711142
12,34391444;1,008296915;11,33561753
29,43336745;10,46389905;18,9694684
-4,684728228;5,637299571;-10,3220278
-18,15937775;-2,017584592;-16,14179316
-4,343424072;6,167771656;-10,51119573
-10,32121848;-0,969566592;-9,351651884
16,10234515;2,792068634;13,31027652
2,349858341;4,659188265;-2,309329924
4,383631066;0,409579596;3,974051469
-0,311770609;5,015741224;-5,327511833
-18,73141641;-2,369852305;-16,3615641
-12,32085438;-3,412916858;-8,907937527
-0,313207254;-7,158081775;6,844874522
-15,69158952;-1,981088834;-13,71050068
-14,70031775;-1,428699102;-13,27161865
-17,4394235;-2,635559305;-14,8038642
15,25501283;2,912216902;12,34279593
17,2420999;2,783750394;14,45834951
-21,54922883;-9,274751017;-12,27447781
-14,98869743;-3,188784757;-11,79991267
13,92661529;3,347879119;10,57873618
12,92913337;8,296885054;4,632248315
4,583593163;7,59808674;-3,014493578
2,781543927;7,454962359;-4,673418432
8,989067154;8,06173448;0,927332675
7,086817565;7,773762792;-0,686945227
-15,23825174;-2,861180406;-12,37707133
14,03816532;8,48281201;5,555353308
17,75067778;8,811894182;8,938783602
-16,27001758;-2,14214669;-14,12787089
-0,005612153;7,137526606;-7,143138759
-14,27081016;-8,496536055;-5,774274109
0,682412135;0,086018359;0,596393776
-2,144483993;-0,384360083;-1,76012391
-2,402311141;5,491896006;-7,894207147
-2,652203103;6,087888536;-8,740091638
-16,52596102;-2,573297364;-13,95266365
7,561677904;3,955999467;3,605678437
-4,349713439;5,822076324;-10,17178976
11,01545988;1,058885078;9,956574801
22,66985151;9,270108283;13,39974323
18,84213994;1,872049543;16,97009039
3,34226;-5,423163484;8,765423484
16,27821565;1,960604012;14,31761164
-16,00486854;-2,464005837;-13,54086271
14,00148116;2,133428948;11,86805221
-15,86002348;-1,587101678;-14,27292181
16,68821132;2,862940889;13,82527043
-2,22954416;5,405797377;-7,635341537
29,24012465;9,965775262;19,27434939
-0,557240401;7,168549089;-7,72578949
-0,559252131;-0,025198539;-0,534053592
-3,874894149;-0,51124628;-3,36364787
7,428739191;4,035606921;3,393132269
-14,42521698;-3,185636858;-11,23958012
11,80345626;8,269567991;3,533888266
29,20953631;10,33388478;18,87565153
-30,09074016;-10,46653752;-19,62420264
-3,480231302;6,503402542;-9,983633845
0,305662958;-0,055662971;0,361325929
4,880902111;4,599550835;0,281351276
-2,342924725;5,489424849;-7,832349574
15,71760678;2,734569003;12,98303778
-16,646386;-1,663886584;-14,98249942
4,577370193;-6,702545888;11,27991608
1,358335392;7,411937314;-6,053601922
-7,992074071;-4,191354373;-3,800719698
16,03341613;2,878085618;13,15533052
11,14292921;8,23254104;2,910388168
17,02371472;8,825724598;8,197990126
-28,34935469;-9,931620588;-18,4177341
22,5585162;9,225473022;13,33304318
6,56748524;4,016259529;2,55122571
-17,26797569;-8,755189694;-8,512785997
12,77030844;1,174262925;11,59604552
15,53341668;3,117921584;12,4154951
29,36689883;10,12359077;19,24330806
-17,63638673;-8,690855098;-8,945531635
-2,918855649;5,860282307;-8,779137956
11,40940653;3,609156586;7,800249941
15,89060184;3,048993217;12,84160862
-3,598563491;6,479568235;-10,07813173
10,72264835;1,030684653;9,691963698
-17,21390613;-1,932656895;-15,28124924
3,887304318;4,289101425;-0,401797106
-24,58837434;-9,547650824;-15,04072352
16,92583588;2,136265781;14,7895701
15,32435613;1,562822338;13,76153379
-4,556440723;-0,187376536;-4,369064186
-3,487632411;5,502825192;-8,990457603
15,34936935;1,658941753;13,6904276
-11,66208172;-8,326960089;-3,335121633
1,775541197;-5,051731743;6,82727294
1,725246446;-6,905943711;8,631190157
-22,65834396;-9,29602906;-13,36231491
27,41482114;9,896863224;17,51795791
5,206172006;0,413998515;4,79217349
-5,429346671;-4,427585722;-1,001760949
13,74170884;1,519145165;12,22256367
7,28147575;7,913255781;-0,631780031
4,727357947;-6,513730132;11,24108808
-11,97462779;-1,161512319;-10,81311547
24,88807509;9,567394273;15,32068081
-2,490146778;5,197854038;-7,688000816
2,815301135;-6,133743429;8,949044564
-5,29041417;-4,455688254;-0,834725917
16,58168711;2,091790845;14,48989626
30,55654527;10,38640253;20,17014274
-12,63723612;-8,375141437;-4,262094686
-4,073610433;-4,288722531;0,215112098
26,53520987;9,636391245;16,89881863
-9,847920306;-0,677527288;-9,170393017
15,19388043;1,884311502;13,30956893
5,615795908;7,714761407;-2,098965499
-11,77233226;-3,483777929;-8,288554332
3,131884668;7,538803731;-4,406919064
28,84430159;10,49352061;18,35078098
13,56658801;8,457298886;5,109289123
-11,65488563;-1,172668172;-10,48221746
-11,69818605;-1,019734353;-10,6784517
-8,332734074;-8,22836348;-0,104370594
-0,93131535;-0,227152528;-0,704162822
2,590051644;-6,811215557;9,401267201
29,01301555;10,18667862;18,82633693
-8,378152154;-8,00995318;-0,368198973
12,06076979;1,102469498;10,9583003
17,25633247;1,988768648;15,26756382
17,79469036;2,374568738;15,42012163
-4,489107442;5,819100509;-10,30820795
24,07969192;9,444497662;14,63519426
-14,15538368;-1,290505051;-12,86487863
-6,984952694;-4,068613517;-2,916339177
-15,25144157;-1,428831867;-13,8226097
-27,6173294;-10,08080828;-17,53652113
-4,210086805;5,514995328;-9,725082133
-4,417541415;5,958968168;-10,37650958
-29,49220382;-10,23279705;-19,25940676
3,463261902;7,521255184;-4,057993282
-4,984513404;6,576171249;-11,56068465
-5,370694948;6,330386158;-11,70108111
-1,28216604;-4,717904913;3,435738873
-28,22506092;-9,904467828;-18,32059309
5,846900666;4,213146225;1,633754441
16,22950811;8,772395798;7,457112315
27,09929787;10,10064254;16,99865533
-2,748863422;6,819862692;-9,568726114
28,77042698;9,944402669;18,82602431
29,27928043;10,45384248;18,82543794
13,12072339;1,358617657;11,76210574
-16,86702558;-8,96278393;-7,904241645
2,274387131;-5,453772491;7,728159622
-2,208439822;-0,115301161;-2,093138661
5,365897688;0,434293779;4,931603909
8,739485367;4,137777504;4,601707863
-15,40491688;-1,806306266;-13,59861061
7,628095874;8,094311527;-0,466215653
-13,47764059;-1,292645556;-12,18499504
17,56225152;2,138639479;15,42361204
11,89882883;1,133714768;10,76511406
15,74937991;2,629093417;13,12028649
-15,18928336;-1,323529936;-13,86575342
-3,523765038;-4,36727409;0,843509052
13,30911426;8,344445354;4,964668911
-4,914269751;5,808560476;-10,72283023
-14,9806446;-8,534414344;-6,446230255
13,17957833;1,184764105;11,99481422
15,87456627;2,681026334;13,19353994
16,14785489;2,7857012;13,36215369
14,26329029;8,581011814;5,682278478
13,95254941;8,419301617;5,533247796
2,66622219;0,106061505;2,560160684
-10,26374503;-0,77130268;-9,492442349
-0,513039814;-0,012473871;-0,500565943
7,533424615;0,813481868;6,719942747
24,13899752;9,290102728;14,84889479
18,30802121;8,965097383;9,342923824
-18,83527455;-2,799217565;-16,03605698
-15,09669635;-1,811897926;-13,28479842
-3,135309103;-7,452709921;4,317400818
-4,945519181;5,664137841;-10,60965702
-10,72917594;-1,119664885;-9,609511056
0,39568728;4,783404052;-4,387716772
-20,22112795;-9,075666069;-11,14546188
-21,33091435;-9,136554024;-12,19436032
-2,033594061;6,543165505;-8,576759566
3,727786299;-5,931949157;9,659735456
-15,77298873;-2,230257331;-13,5427314
-17,58030615;-8,776236868;-8,804069286
27,78609296;10,23979551;17,54629745
-0,858697004;-7,411538224;6,55284122
16,10025495;8,80175928;7,298495673
22,3056084;9,220757916;13,08485049
-2,626999101;6,975260601;-9,602259703
-2,630816162;6,657537367;-9,288353529
12,50754658;3,498358237;9,009188344
0,247093893;7,02068641;-6,773592517
-2,605930274;-0,198004829;-2,407925446
23,62670189;9,325250313;14,30145158
-6,010958045;-4,331934183;-1,679023862
0,609642996;-5,214740159;5,824383155
-17,07004677;-8,752226343;-8,317820422
15,76823602;2,805582954;12,96265306
11,72500288;1,224830748;10,50017213
6,363984574;7,830569119;-1,466584545
30,13533661;10,40724454;19,72809207
-25,63374229;-9,556134459;-16,07760783
-0,284222405;4,882509776;-5,166732182
11,22856932;8,254588668;2,973980656
14,35584103;1,482821454;12,87301957
-17,50288227;-2,274479655;-15,22840262
-5,104320784;-7,75441993;2,650099145
2,044247913;-6,696679725;8,740927638
-27,20481651;-10,00264647;-17,20217004
-28,91980348;-10,26139603;-18,65840745
0,158321483;-6,808786109;6,967107592
-16,6294686;-2,155844462;-14,47362414
-1,674749787;6,853842272;-8,528592058
8,115763019;4,016264707;4,099498312
2,837715727;7,382967474;-4,545251747
-3,941439909;-7,652295786;3,710855877
-5,235178841;-7,616152672;2,380973831
2,112136657;-5,408096154;7,52023281
-4,389896573;6,113022812;-10,50291939
14,11276528;1,383460612;12,72930466
-3,513416325;-4,58782377;1,074407444
15,11940594;8,618549399;6,500856541
18,3969666;1,928860472;16,46810613
-11,57365932;-1,016480506;-10,55717882
-4,336984236;6,046900066;-10,3838843
-10,57290927;-3,656751686;-6,916157581
0,512650751;-5,049055363;5,561706115
17,68537554;2,369458389;15,31591715
-3,003774913;6,974227583;-9,978002496
-3,951580955;-7,638353846;3,686772891
-6,601950039;-4,116883531;-2,485066509
-13,76256261;-3,027335005;-10,73522761
28,69304246;10,06971028;18,62333218
4,558143573;-6,310490271;10,86863384
7,846676257;0,671897754;7,174778502
-3,363950461;-4,571505364;1,207554903
26,46357799;9,522950966;16,94062702
-11,18521185;-8,157839734;-3,027372113
-29,24769342;-10,34778576;-18,89990766
10,61533286;3,565430996;7,049901866
5,843889226;7,670285432;-1,826396206
14,98794504;8,631937112;6,356007925
-7,033562958;-4,218679567;-2,81488339
-15,82280938;-2,925494799;-12,89731458
-29,56039324;-10,25293942;-19,30745382
-12,267082;-1,10996746;-11,15711454
26,04010773;9,52553576;16,51457197
-13,09867214;-8,292344877;-4,806327264
-2,472791669;-7,50401231;5,031220642
-3,758415112;6,006869514;-9,765284626
11,90386415;3,568389302;8,335474852
-14,87618618;-1,179268145;-13,69691803
3,270692613;0,275945488;2,994747125
-28,98883337;-10,02305661;-18,96577675
3,197539703;-6,30750922;9,505048923
1,629545373;-5,26779414;6,897339513
-3,903365216;-4,187990071;0,284624856
-13,97963206;-8,598044917;-5,381587139
3,483992204;-5,288204299;8,772196504
7,27481461;0,495161755;6,779652855
12,13262236;1,07865574;11,05396662
7,361941355;3,992156193;3,369785161
-8,441593733;-3,78030338;-4,661290353
10,11796946;8,114069004;2,003900451
3,716536058;-6,878744606;10,59528066
-4,323185205;-7,624438432;3,301253227
4,538420797;-6,263932106;10,8023529
-25,29990636;-9,458906289;-15,84100007
-10,44273596;-8,314693452;-2,128042513
-27,69493193;-9,744390221;-17,95054171
-0,542016117;0,038791304;-0,58080742
3,502504612;7,646792766;-4,144288154
15,20110962;1,364545831;13,83656379
2,748258506;4,641527326;-1,89326882
-12,95681201;-8,566240387;-4,39057162
2,553558241;0,197256444;2,356301797
10,19049099;8,179797849;2,010693138
-10,90155563;-3,326301153;-7,575254473
-5,145895014;6,399648992;-11,54554401
5,922256277;4,208611665;1,713644612
3,977918509;7,672542897;-3,694624388
-4,544646179;5,977958131;-10,52260431
-4,317502971;-0,447259329;-3,870243642
-30,39864689;-10,30929999;-20,0893469
-15,77497759;-8,683472018;-7,091505577
5,814056877;-6,168690067;11,98274694
-2,731516221;-7,343775468;4,612259247
3,17998895;0,264200963;2,915787987
14,05782957;3,040751646;11,01707792
1,73263778;4,692241579;-2,959603799
-12,4046322;-3,09119363;-9,313438572
4,162948388;7,619747357;-3,456798969
16,43155281;2,797813505;13,6337393
-3,230299541;6,782650116;-10,01294966
-17,13221239;-2,637777799;-14,49443459
-26,99694538;-9,783562786;-17,2133826
-1,36856575;5,097235357;-6,465801107
-11,24130529;-8,201250083;-3,040055209
-15,98439144;-1,659207898;-14,32518354
-18,61061465;-8,84309366;-9,767520992
28,2793897;10,02129741;18,25809229
-4,141831859;-7,784435895;3,642604036
-8,159928253;-3,985392961;-4,174535292
-28,93145826;-10,43674701;-18,49471125
-16,95033654;-8,800263627;-8,15007291
12,1031544;1,186617924;10,91653648
-17,15567748;-2,001879931;-15,15379755
-29,23330226;-10,13269374;-19,10060852
5,100714799;4,292904715;0,807810084
6,613691116;4,159461152;2,454229965
28,99989204;10,06704641;18,93284563
15,0341989;1,486004462;13,54819444
-3,853400417;5,576117393;-9,42951781
14,18611892;1,558625005;12,62749392
3,168720652;-5,555385162;8,724105814
-12,65298241;-1,390457924;-11,26252449
-29,9854513;-10,30913039;-19,67632091
17,02797413;8,667840414;8,360133718
16,72688623;2,475875195;14,25101103
-2,768997952;-7,533292457;4,764294505
-29,75284146;-10,47785825;-19,27498321
-3,716261605;-4,7082243;0,991962695
5,09893817;4,145493884;0,953444286
-17,41029979;-8,643185861;-8,767113924
-4,495592085;-4,245852941;-0,249739145
7,925580768;0,623189785;7,302390983
-17,79530283;-8,789397031;-9,005905803
-3,523028142;6,563601977;-10,08663012
7,64254676;0,623679562;7,018867199
-1,515235313;5,10093714;-6,616172453
-3,52610619;-7,61256385;4,086457661
3,758436914;-5,751542502;9,509979416
